test-30OCT205-8
test-29oct2015
test-28OCT2015-7
test-28OCT2015-6
test-23OCT2015-5
test-23OCT2015-4
test-23OCT2015-3
test-23OCT2015-2
test-23OCT2015-again
test-23OCT2015
234laskdj
truong test
5432
4321
1234
bbb
aaa
12345
67890
truong
